<svg xmlns="http://www.w3.org/2000/svg" width="210" height="193" viewBox="0 0 210 193">
  <g id="Photo" transform="translate(-245.872 -80.5)">
    <rect id="Rectangle_239" data-name="Rectangle 239" width="210" height="193" transform="translate(245.872 80.5)" fill="#bce0fd"/>
    <g id="Union_1" data-name="Union 1" transform="translate(296.908 128.139)">
      <ellipse id="Ellipse_3" data-name="Ellipse 3" cx="26.5" cy="29" rx="26.5" ry="29" transform="translate(26.964 0.361)" fill="#fff"/>
      <path id="Path_6" data-name="Path 6" d="M53.659,10C24.147,10,0,23.167,0,39.26V53.89H107.318V39.26C107.318,23.167,83.171,10,53.659,10Z" transform="translate(0 56.498)" fill="#fff"/>
    </g>
  </g>
</svg>
